<svg width="94" height="160" viewBox="0 0 94 160" fill="none" xmlns="http://www.w3.org/2000/svg">
<path d="M93.8019 22.8716C62.1364 10.4547 26.8375 27.3386 14.9597 60.5829C3.08188 93.8272 19.123 130.843 50.7885 143.26" stroke="url(#paint0_linear_269_311)"/>
<path d="M37.2101 136.025C32.3897 131.881 25.3497 132.328 21.2693 137.126L15.95 143.38C20.7705 147.525 27.8105 147.078 31.8909 142.28L37.2101 136.025Z" fill="url(#paint1_linear_269_311)" stroke="url(#paint2_linear_269_311)"/>
<path opacity="0.8" d="M27.1056 125.38C22.3002 121.217 21.3627 113.908 25.0642 108.811L29.9305 102.111C34.736 106.274 35.6735 113.584 31.972 118.68L27.1056 125.38Z" fill="url(#paint3_linear_269_311)" stroke="url(#paint4_linear_269_311)"/>
<path opacity="0.6" d="M13.3007 104.011C13.7574 100.519 11.4831 97.1723 8.02814 96.3941L4.20073 95.5319C3.74406 99.0236 6.01834 102.37 9.47328 103.149L13.3007 104.011Z" fill="url(#paint5_linear_269_311)" stroke="url(#paint6_linear_269_311)"/>
<path opacity="0.6" d="M11.8612 78.5589C14.3118 79.2504 16.8815 77.9563 17.7588 75.5007L18.9327 72.2152C16.4821 71.5237 13.9124 72.8178 13.0351 75.2734L11.8612 78.5589Z" fill="url(#paint7_linear_269_311)" stroke="url(#paint8_linear_269_311)"/>
<defs>
<linearGradient id="paint0_linear_269_311" x1="10.8875" y1="59.2587" x2="67.5397" y2="79.4953" gradientUnits="userSpaceOnUse">
<stop stop-color="#35D2B9"/>
<stop offset="0.45625" stop-color="#5ECAC6"/>
<stop offset="1" stop-color="#109BAE"/>
</linearGradient>
<linearGradient id="paint1_linear_269_311" x1="34.3153" y1="130.646" x2="20.3797" y2="145.568" gradientUnits="userSpaceOnUse">
<stop stop-color="#35D2B9"/>
<stop offset="0.45625" stop-color="#5ECAC6"/>
<stop offset="1" stop-color="#109BAE"/>
</linearGradient>
<linearGradient id="paint2_linear_269_311" x1="34.3153" y1="130.646" x2="20.3797" y2="145.568" gradientUnits="userSpaceOnUse">
<stop stop-color="#35D2B9"/>
<stop offset="0.45625" stop-color="#5ECAC6"/>
<stop offset="1" stop-color="#109BAE"/>
</linearGradient>
<linearGradient id="paint3_linear_269_311" x1="21.5126" y1="123.433" x2="34.2812" y2="107.406" gradientUnits="userSpaceOnUse">
<stop stop-color="#35D2B9"/>
<stop offset="0.45625" stop-color="#5ECAC6"/>
<stop offset="1" stop-color="#109BAE"/>
</linearGradient>
<linearGradient id="paint4_linear_269_311" x1="21.5126" y1="123.433" x2="34.2812" y2="107.406" gradientUnits="userSpaceOnUse">
<stop stop-color="#35D2B9"/>
<stop offset="0.45625" stop-color="#5ECAC6"/>
<stop offset="1" stop-color="#109BAE"/>
</linearGradient>
<linearGradient id="paint5_linear_269_311" x1="15.2221" y1="101.244" x2="4.06949" y2="98.9521" gradientUnits="userSpaceOnUse">
<stop stop-color="#35D2B9"/>
<stop offset="0.45625" stop-color="#5ECAC6"/>
<stop offset="1" stop-color="#109BAE"/>
</linearGradient>
<linearGradient id="paint6_linear_269_311" x1="15.2221" y1="101.244" x2="4.06949" y2="98.9521" gradientUnits="userSpaceOnUse">
<stop stop-color="#35D2B9"/>
<stop offset="0.45625" stop-color="#5ECAC6"/>
<stop offset="1" stop-color="#109BAE"/>
</linearGradient>
<linearGradient id="paint7_linear_269_311" x1="13.5586" y1="80.4999" x2="16.9629" y2="71.8247" gradientUnits="userSpaceOnUse">
<stop stop-color="#35D2B9"/>
<stop offset="0.45625" stop-color="#5ECAC6"/>
<stop offset="1" stop-color="#109BAE"/>
</linearGradient>
<linearGradient id="paint8_linear_269_311" x1="13.5586" y1="80.4999" x2="16.9629" y2="71.8247" gradientUnits="userSpaceOnUse">
<stop stop-color="#35D2B9"/>
<stop offset="0.45625" stop-color="#5ECAC6"/>
<stop offset="1" stop-color="#109BAE"/>
</linearGradient>
</defs>
</svg>
