<svg width="72" height="75" viewBox="0 0 72 75" fill="none" xmlns="http://www.w3.org/2000/svg">
<g opacity="0.3">
<path d="M41.5398 75.2058C41.5398 77.6649 43.5333 79.6584 45.9924 79.6584H50.3133V84.6039C50.3133 86.9504 52.2156 88.8527 54.5621 88.8527C56.9087 88.8527 58.8109 86.9504 58.8109 84.6039V79.6584H63.1318C65.5909 79.6584 67.5844 77.6649 67.5844 75.2058C67.5844 72.7467 65.5909 70.7532 63.1318 70.7532H58.8109V65.8078C58.8109 63.4612 56.9087 61.559 54.5621 61.559C52.2156 61.559 50.3133 63.4612 50.3133 65.8078V70.7532H45.9924C43.5333 70.7532 41.5398 72.7467 41.5398 75.2058Z" fill="#F2F7FF"/>
<path d="M20.5492 30.4742C20.5492 35.0645 24.2703 38.7856 28.8606 38.7856H36.9264V48.0172C36.9264 52.3974 40.4772 55.9483 44.8574 55.9483V55.9483C49.2377 55.9483 52.7885 52.3974 52.7885 48.0172V38.7856H60.8542C65.4445 38.7856 69.1657 35.0645 69.1657 30.4742V30.4742C69.1657 25.8838 65.4445 22.1627 60.8542 22.1627H52.7885V12.9311C52.7885 8.55087 49.2377 5 44.8574 5V5C40.4772 5 36.9264 8.55087 36.9264 12.9311V22.1627H28.8606C24.2703 22.1627 20.5492 25.8838 20.5492 30.4742V30.4742Z" stroke="#F2F7FF" stroke-width="2"/>
<path d="M59.1947 52.4536C59.1947 53.6626 60.1748 54.6428 61.3839 54.6428H63.5084V57.0743C63.5084 58.228 64.4436 59.1633 65.5973 59.1633C66.7511 59.1633 67.6863 58.228 67.6863 57.0743V54.6428H69.8108C71.0198 54.6428 72 53.6626 72 52.4536C72 51.2445 71.0198 50.2644 69.8108 50.2644H67.6863V47.8329C67.6863 46.6792 66.7511 45.7439 65.5973 45.7439C64.4436 45.7439 63.5084 46.6792 63.5084 47.8329V50.2644H61.3839C60.1748 50.2644 59.1947 51.2445 59.1947 52.4536Z" fill="#F2F7FF"/>
<path d="M18 68.2968C18 69.9456 19.3366 71.2823 20.9855 71.2823H23.8826V74.5982C23.8826 76.1716 25.1581 77.447 26.7314 77.447V77.447C28.3048 77.447 29.5803 76.1716 29.5803 74.5982V71.2823H32.4774C34.1263 71.2823 35.4629 69.9456 35.4629 68.2968V68.2968C35.4629 66.648 34.1263 65.3113 32.4774 65.3113H29.5803V61.9954C29.5803 60.422 28.3048 59.1466 26.7314 59.1466V59.1466C25.1581 59.1466 23.8826 60.422 23.8826 61.9954V65.3113H20.9855C19.3366 65.3113 18 66.648 18 68.2968V68.2968Z" stroke="#F2F7FF" stroke-width="2"/>
<path d="M2.68251 0.804729C1.74707 0.804729 0.988741 1.59942 0.988741 2.57973C0.988741 3.56004 1.74707 4.35474 2.68251 4.35474C3.61795 4.35474 4.37628 3.56004 4.37628 2.57973C4.37628 1.59942 3.61795 0.804729 2.68251 0.804729Z" fill="#F2F7FF"/>
</g>
</svg>
