<svg width="131" height="115" viewBox="0 0 131 115" fill="none" xmlns="http://www.w3.org/2000/svg">
<g opacity="0.1">
<path d="M71.0386 71.3559C71.0386 63.7425 64.8667 57.5706 57.2532 57.5706H47.7318V40.3915C47.7318 34.1579 42.6785 29.1046 36.4449 29.1046V29.1046C30.2113 29.1046 25.158 34.1579 25.158 40.3915V57.5706H15.6366C8.02313 57.5706 1.8512 63.7425 1.8512 71.3559V71.3559C1.8512 78.9694 8.02312 85.1413 15.6366 85.1413H25.158V102.32C25.158 108.554 30.2113 113.607 36.4449 113.607V113.607C42.6785 113.607 47.7318 108.554 47.7318 102.32V85.1413H57.2532C64.8667 85.1413 71.0386 78.9694 71.0386 71.3559V71.3559Z" stroke="url(#paint0_linear_92_783)" stroke-width="2"/>
<path d="M122.335 48.1555C122.335 42.8872 118.064 38.6165 112.796 38.6165H106.208V26.7292C106.208 22.4158 102.711 18.9191 98.3976 18.9191V18.9191C94.0842 18.9191 90.5875 22.4158 90.5875 26.7292V38.6165H83.999C78.7308 38.6165 74.46 42.8872 74.46 48.1555V48.1555C74.46 53.4237 78.7308 57.6945 83.999 57.6945H90.5875V69.5817C90.5875 73.8952 94.0842 77.3919 98.3976 77.3919V77.3919C102.711 77.3919 106.208 73.8952 106.208 69.5817V57.6945H112.796C118.065 57.6945 122.335 53.4237 122.335 48.1555V48.1555Z" stroke="#3481FF" stroke-width="2"/>
<path d="M130.379 94.9337C130.379 93.0643 128.863 91.5489 126.994 91.5489H124.656V87.3308C124.656 85.8002 123.415 84.5594 121.885 84.5594C120.354 84.5594 119.113 85.8002 119.113 87.3308V91.5489H116.775C114.906 91.5489 113.391 93.0643 113.391 94.9337C113.391 96.803 114.906 98.3185 116.775 98.3185H119.113V102.537C119.113 104.067 120.354 105.308 121.885 105.308C123.415 105.308 124.656 104.067 124.656 102.537V98.3185H126.994C128.863 98.3185 130.379 96.803 130.379 94.9337Z" fill="url(#paint1_linear_92_783)"/>
<path d="M69.3414 9.95192C69.3414 7.21719 67.1244 5.00026 64.3897 5.00026H60.9697V-1.17038C60.9697 -3.40947 59.1545 -5.22461 56.9154 -5.22461V-5.22461C54.6764 -5.22461 52.8612 -3.40947 52.8612 -1.17038V5.00026H49.4412C46.7064 5.00026 44.4895 7.21719 44.4895 9.95192V9.95192C44.4895 12.6866 46.7064 14.9036 49.4412 14.9036H52.8612V21.0742C52.8612 23.3133 54.6764 25.1284 56.9154 25.1284V25.1284C59.1545 25.1284 60.9697 23.3133 60.9697 21.0742V14.9036H64.3897C67.1244 14.9036 69.3414 12.6866 69.3414 9.95192V9.95192Z" stroke="url(#paint2_linear_92_783)" stroke-width="2"/>
</g>
<defs>
<linearGradient id="paint0_linear_92_783" x1="36.5594" y1="123.113" x2="79.0664" y2="-41.0763" gradientUnits="userSpaceOnUse">
<stop stop-color="#103393"/>
<stop offset="0.477083" stop-color="#3481FF"/>
<stop offset="1" stop-color="#00D4FF"/>
</linearGradient>
<linearGradient id="paint1_linear_92_783" x1="121.912" y1="36.2012" x2="121.928" y2="105.284" gradientUnits="userSpaceOnUse">
<stop stop-color="#8EB5F3"/>
<stop offset="0.497917" stop-color="#3481FF"/>
<stop offset="1" stop-color="#0D4CB3"/>
</linearGradient>
<linearGradient id="paint2_linear_92_783" x1="56.9566" y1="28.5428" x2="72.2249" y2="-30.4333" gradientUnits="userSpaceOnUse">
<stop stop-color="#103393"/>
<stop offset="0.477083" stop-color="#3481FF"/>
<stop offset="1" stop-color="#00D4FF"/>
</linearGradient>
</defs>
</svg>
