<svg width="186" height="180" viewBox="0 0 186 180" fill="none" xmlns="http://www.w3.org/2000/svg">
<circle cx="95.5002" cy="90.5" r="70.5" fill="url(#paint0_linear_235_117)"/>
<circle cx="178.467" cy="27.5" r="7.5" fill="url(#paint1_linear_235_117)"/>
<circle cx="20.0334" cy="10" r="10" fill="url(#paint2_linear_235_117)"/>
<circle cx="10.0334" cy="133" r="5" fill="url(#paint3_linear_235_117)"/>
<circle cx="165.533" cy="160.5" r="2.5" fill="url(#paint4_linear_235_117)"/>
<path fill-rule="evenodd" clip-rule="evenodd" d="M84.8553 65.9147H106.169C114.503 65.9147 120.083 71.7655 120.083 80.468V100.555C120.083 109.233 114.503 115.081 106.169 115.081H84.8553C76.5215 115.081 70.9165 109.233 70.9165 100.555V80.468C70.9165 71.7655 76.5215 65.9147 84.8553 65.9147ZM102.899 97.873C103.735 97.0396 103.735 95.6875 102.899 94.8517L98.5236 90.4759L102.899 86.0976C103.735 85.2642 103.735 83.8875 102.899 83.0517C102.064 82.2134 100.712 82.2134 99.8511 83.0517L95.4998 87.4251L91.124 83.0517C90.2636 82.2134 88.9115 82.2134 88.0757 83.0517C87.2398 83.8875 87.2398 85.2642 88.0757 86.0976L92.4515 90.4759L88.0757 94.8271C87.2398 95.6875 87.2398 97.0396 88.0757 97.873C88.4936 98.2909 89.059 98.5146 89.5998 98.5146C90.1653 98.5146 90.7061 98.2909 91.124 97.873L95.4998 93.5242L99.8757 97.873C100.294 98.318 100.834 98.5146 101.375 98.5146C101.941 98.5146 102.482 98.2909 102.899 97.873Z" fill="white"/>
<circle cx="106.533" cy="4.5" r="2.5" fill="url(#paint5_linear_235_117)"/>
<circle cx="62.5334" cy="176.5" r="3.5" fill="url(#paint6_linear_235_117)"/>
<circle cx="122.033" cy="171" r="1" fill="url(#paint7_linear_235_117)"/>
<circle cx="170.533" cy="110.5" r="2.5" fill="url(#paint8_linear_235_117)"/>
<circle cx="1.03345" cy="75" r="1" fill="url(#paint9_linear_235_117)"/>
<defs>
<linearGradient id="paint0_linear_235_117" x1="166" y1="161" x2="-1.7771" y2="112.355" gradientUnits="userSpaceOnUse">
<stop stop-color="#FF4D67"/>
<stop offset="1" stop-color="#FF8A9B"/>
</linearGradient>
<linearGradient id="paint1_linear_235_117" x1="185.967" y1="35" x2="168.118" y2="29.8249" gradientUnits="userSpaceOnUse">
<stop stop-color="#FF4D67"/>
<stop offset="1" stop-color="#FF8A9B"/>
</linearGradient>
<linearGradient id="paint2_linear_235_117" x1="30.0334" y1="20" x2="6.23524" y2="13.0999" gradientUnits="userSpaceOnUse">
<stop stop-color="#FF4D67"/>
<stop offset="1" stop-color="#FF8A9B"/>
</linearGradient>
<linearGradient id="paint3_linear_235_117" x1="15.0334" y1="138" x2="3.13435" y2="134.55" gradientUnits="userSpaceOnUse">
<stop stop-color="#FF4D67"/>
<stop offset="1" stop-color="#FF8A9B"/>
</linearGradient>
<linearGradient id="paint4_linear_235_117" x1="168.033" y1="163" x2="162.084" y2="161.275" gradientUnits="userSpaceOnUse">
<stop stop-color="#FF4D67"/>
<stop offset="1" stop-color="#FF8A9B"/>
</linearGradient>
<linearGradient id="paint5_linear_235_117" x1="109.033" y1="7" x2="103.084" y2="5.27498" gradientUnits="userSpaceOnUse">
<stop stop-color="#FF4D67"/>
<stop offset="1" stop-color="#FF8A9B"/>
</linearGradient>
<linearGradient id="paint6_linear_235_117" x1="66.0334" y1="180" x2="57.7041" y2="177.585" gradientUnits="userSpaceOnUse">
<stop stop-color="#FF4D67"/>
<stop offset="1" stop-color="#FF8A9B"/>
</linearGradient>
<linearGradient id="paint7_linear_235_117" x1="123.033" y1="172" x2="120.654" y2="171.31" gradientUnits="userSpaceOnUse">
<stop stop-color="#FF4D67"/>
<stop offset="1" stop-color="#FF8A9B"/>
</linearGradient>
<linearGradient id="paint8_linear_235_117" x1="173.033" y1="113" x2="167.084" y2="111.275" gradientUnits="userSpaceOnUse">
<stop stop-color="#FF4D67"/>
<stop offset="1" stop-color="#FF8A9B"/>
</linearGradient>
<linearGradient id="paint9_linear_235_117" x1="2.03345" y1="76" x2="-0.346373" y2="75.31" gradientUnits="userSpaceOnUse">
<stop stop-color="#FF4D67"/>
<stop offset="1" stop-color="#FF8A9B"/>
</linearGradient>
</defs>
</svg>
