<svg width="18" height="20" viewBox="0 0 18 20" fill="none" xmlns="http://www.w3.org/2000/svg">
<path d="M12.1106 20V16.7107C12.1106 15.6635 11.1279 14.8147 9.91581 14.8147H2.45334C1.24121 14.8147 0.258545 15.6636 0.258545 16.7107V18.2452V20H12.1106Z" fill="#FEC230"/>
<path d="M4.17676 12.2064V14.5161V14.5163C4.17676 15.5514 5.0159 16.3906 6.05099 16.3906C7.08608 16.3906 7.92523 15.5514 7.92523 14.5163V14.5161C7.92523 13.651 7.92523 13.0171 7.92523 12.2064H4.17676Z" fill="#F9CFCF"/>
<path d="M6.05298 13.0489C3.62566 13.0489 1.65796 11.0812 1.65796 8.65389V6.81305C1.65796 6.2029 2.15255 5.70831 2.7627 5.70831H10.448V8.65389C10.448 11.0812 8.4803 13.0489 6.05298 13.0489Z" fill="#3481FF"/>
<path d="M9.79626 8.9511V8.60058C9.79626 6.55186 8.12038 4.89105 6.05298 4.89105C3.98564 4.89105 2.30969 6.55186 2.30969 8.60058V8.9511C1.65967 8.93788 1.14404 9.45571 1.14404 10.0816C1.14404 10.75 1.72754 11.2786 2.40855 11.2066C2.79483 12.8478 4.27938 14.0706 6.0529 14.0706C7.82657 14.0706 9.31098 12.8478 9.69725 11.2066C10.3774 11.2786 10.9618 10.7509 10.9618 10.0816C10.9619 9.45543 10.4459 8.93795 9.79626 8.9511Z" fill="#F9CFCF"/>
<path d="M7.99632 10.8525C7.73499 10.8525 7.52319 10.6407 7.52319 10.3794V9.87468C7.52319 9.61334 7.73499 9.40155 7.99632 9.40155C8.25765 9.40155 8.46944 9.61334 8.46944 9.87468V10.3794C8.46944 10.6407 8.25758 10.8525 7.99632 10.8525Z" fill="#211F78"/>
<path d="M4.10863 10.8525C3.84729 10.8525 3.6355 10.6407 3.6355 10.3794V9.87468C3.6355 9.61334 3.84729 9.40155 4.10863 9.40155C4.36996 9.40155 4.58175 9.61334 4.58175 9.87468V10.3794C4.58175 10.6407 4.36996 10.8525 4.10863 10.8525Z" fill="#211F78"/>
<path d="M10.4478 8.23147H4.57506C3.32384 8.23147 2.30957 7.21713 2.30957 5.96598C2.30957 4.71477 3.32391 3.7005 4.57506 3.7005H8.41912C9.53957 3.7005 10.4478 4.6088 10.4478 5.72917V8.23147Z" fill="#3481FF"/>
<path d="M13.8088 0C11.6369 0 9.87622 1.76066 9.87622 3.93262C9.87622 4.70425 10.0993 5.42335 10.4833 6.03066L9.99306 7.39844C9.95255 7.51151 10.0618 7.62075 10.1748 7.58024L11.4905 7.10868C12.1407 7.58408 12.9418 7.86531 13.8088 7.86531C15.9808 7.86531 17.7415 6.10457 17.7415 3.93269C17.7415 1.76081 15.9808 0 13.8088 0Z" fill="#FF3939"/>
<path d="M15.7866 3.38748V4.57282H14.6497V5.72141H13.4765V4.57282H12.3396V3.38748H13.4765V2.23889H14.6497V3.38748H15.7866Z" fill="#F0F7FF"/>
<path d="M6.04942 13.1125C6.5597 13.1125 6.97336 13.0091 6.97336 12.8815C6.97336 12.7539 6.5597 12.6505 6.04942 12.6505C5.53915 12.6505 5.12549 12.7539 5.12549 12.8815C5.12549 13.0091 5.53915 13.1125 6.04942 13.1125Z" fill="#F9A7A7"/>
<path d="M3.28143 11.4371H2.25273C2.16703 11.4371 2.09749 11.3675 2.09749 11.2819C2.09749 11.1962 2.16703 11.1266 2.25273 11.1266H3.03537L2.00884 8.97467C1.9719 8.89728 2.00465 8.80461 2.08204 8.76766C2.15927 8.73079 2.25195 8.76347 2.28898 8.84093L3.42153 11.2149C3.44451 11.2631 3.44117 11.3196 3.41276 11.3647C3.38435 11.4098 3.33475 11.4371 3.28143 11.4371Z" fill="#F2F7FF"/>
<path d="M9.90971 11.4371H8.88101C8.82768 11.4371 8.77816 11.4098 8.74975 11.3647C8.72134 11.3196 8.71801 11.2631 8.74098 11.215L9.87354 8.84095C9.91048 8.76356 10.0032 8.73088 10.0805 8.76767C10.1579 8.80462 10.1906 8.89722 10.1537 8.97469L9.12706 11.1266H9.90971C9.9954 11.1266 10.0649 11.1962 10.0649 11.2819C10.0649 11.3676 9.99548 11.4371 9.90971 11.4371Z" fill="#F2F7FF"/>
<path d="M3.28149 13.1319C3.99436 13.8505 4.98518 14.2964 6.08141 14.2964C7.17764 14.2964 8.16831 13.8505 8.88117 13.132V11.2819H3.28149V13.1319Z" fill="#35D2B9"/>
</svg>
